RISC-MIPS/Test.vcd
$date
	Tue Jun  9 12:47:56 2020
$end
$version
	Icarus Verilog
$end
$timescale
	1s
$end
$scope module PipelinedMIPS_tb $end
$var reg 1 ! Clk $end
$var reg 1 " Rst $end
$scope module MIPS_CPU $end
$var wire 1 ! Clk $end
$var wire 32 # PCout [31:0] $end
$var wire 1 $ PCsrc $end
$var wire 1 " Rst $end
$var wire 1 % branch_zero $end
$var wire 1 & memError $end
$var wire 1 ' zero_eqdet $end
$var wire 5 ( writeReg3 [4:0] $end
$var wire 5 ) writeReg2 [4:0] $end
$var wire 5 * writeReg [4:0] $end
$var wire 32 + writeData [31:0] $end
$var wire 5 , stall [4:0] $end
$var wire 5 - rtSel [4:0] $end
$var wire 5 . rsSel [4:0] $end
$var wire 1 / regWrite $end
$var wire 1 0 regDst $end
$var wire 5 1 rdSel [4:0] $end
$var wire 6 2 opCode_nop [5:0] $end
$var wire 6 3 opCode [5:0] $end
$var wire 1 4 nop $end
$var wire 1 5 memtoreg $end
$var wire 1 6 memWrite $end
$var wire 1 7 memRead $end
$var wire 1 8 jump $end
$var wire 32 9 inc4_PC [31:0] $end
$var wire 1 : iMemError $end
$var wire 1 ; hazard $end
$var wire 1 < flushIF $end
$var wire 1 = flush $end
$var wire 32 > data2 [31:0] $end
$var wire 32 ? data1 [31:0] $end
$var wire 1 @ dMemError $end
$var wire 1 A branch $end
$var wire 1 B Zero $end
$var wire 32 C PCin [31:0] $end
$var wire 32 D Offset_add [31:0] $end
$var wire 1 E MEM_memWrite $end
$var wire 1 F MEM_memRead $end
$var wire 32 G JuOffset32 [31:0] $end
$var wire 28 H JuOffset28 [27:0] $end
$var wire 32 I JA_BA [31:0] $end
$var wire 32 J Instruction [31:0] $end
$var wire 32 K ImOffset [31:0] $end
$var wire 32 L Extdata [31:0] $end
$var wire 32 M DO [31:0] $end
$var wire 2 N ControlWire3 [1:0] $end
$var wire 4 O ControlWire2 [3:0] $end
$var wire 8 P ControlWire1 [7:0] $end
$var wire 32 Q B [31:0] $end
$var wire 1 R ALUsrc $end
$var wire 32 S ALUresult [31:0] $end
$var wire 2 T ALUOp [1:0] $end
$var wire 4 U ALUCnt [3:0] $end
$var reg 73 V EX_MEM_pipereg [72:0] $end
$var reg 120 W ID_EX_pipereg [119:0] $end
$var reg 64 X IF_ID_pipereg [63:0] $end
$var reg 71 Y MEM_WB_pipereg [70:0] $end
$var reg 32 Z PC_reg [31:0] $end
$scope module ALU0 $end
$var wire 32 [ A [31:0] $end
$var wire 1 B Zero $end
$var wire 32 \ B [31:0] $end
$var wire 4 ] AluOp [3:0] $end
$var reg 32 ^ ALUresult [31:0] $end
$upscope $end
$scope module ALU1 $end
$var wire 2 _ AluOp [1:0] $end
$var wire 6 ` Funct [5:0] $end
$var wire 6 a Imm [5:0] $end
$var reg 4 b ALUCnt [3:0] $end
$upscope $end
$scope module CUnit $end
$var wire 6 c Instruction [5:0] $end
$var wire 2 d ALUOp [1:0] $end
$var reg 1 e ALUOp0 $end
$var reg 1 f ALUOp1 $end
$var reg 1 R ALUsrc $end
$var reg 1 A Branch $end
$var reg 1 8 Jump $end
$var reg 1 7 MemRead $end
$var reg 1 6 MemWrite $end
$var reg 1 5 MemtoReg $end
$var reg 1 0 RegDst $end
$var reg 1 / RegWrite $end
$upscope $end
$scope module DataMemory $end
$var wire 32 g Address [31:0] $end
$var wire 1 ! Clk $end
$var wire 1 " Rst $end
$var wire 32 h WriteData [31:0] $end
$var wire 1 F memRead $end
$var wire 1 E memWrite $end
$var wire 32 i ReadData1 [31:0] $end
$var wire 32 j ReadData [31:0] $end
$var reg 1 @ DMemError $end
$upscope $end
$scope module HazUnit $end
$var wire 1 k EX_memRead $end
$var wire 1 l EX_regWen $end
$var wire 5 m ID_Rs [4:0] $end
$var wire 5 n ID_Rt [4:0] $end
$var wire 5 o MEM_Rd [4:0] $end
$var wire 1 p MEM_regWen $end
$var wire 1 % branch $end
$var wire 1 8 jump $end
$var wire 5 q EX_Rd [4:0] $end
$var reg 1 = flush $end
$var reg 1 ; hazard $end
$upscope $end
$scope module ImmAddressAdder $end
$var wire 32 r A [31:0] $end
$var wire 32 s B [31:0] $end
$var reg 32 t Result [31:0] $end
$upscope $end
$scope module InputSelectALU $end
$var wire 32 u I0 [31:0] $end
$var wire 32 v I1 [31:0] $end
$var wire 1 w Sel $end
$var wire 32 x Out [31:0] $end
$upscope $end
$scope module InstructionMemory $end
$var wire 32 y Address [31:0] $end
$var wire 1 ! Clk $end
$var wire 1 z Rst $end
$var wire 32 { Data [31:0] $end
$var reg 1 : IMemError $end
$upscope $end
$scope module JumpAddressSel $end
$var wire 32 | I0 [31:0] $end
$var wire 32 } I1 [31:0] $end
$var wire 1 A Sel $end
$var wire 32 ~ Out [31:0] $end
$upscope $end
$scope module MemorySelMux $end
$var wire 32 !" I0 [31:0] $end
$var wire 32 "" I1 [31:0] $end
$var wire 1 #" Sel $end
$var wire 32 $" Out [31:0] $end
$upscope $end
$scope module NOPinsert $end
$var wire 6 %" I0 [5:0] $end
$var wire 6 &" I1 [5:0] $end
$var wire 1 4 Sel $end
$var wire 6 '" Out [5:0] $end
$upscope $end
$scope module PCAddressIncrement $end
$var wire 32 (" A [31:0] $end
$var wire 32 )" B [31:0] $end
$var reg 32 *" Result [31:0] $end
$upscope $end
$scope module PCSelect $end
$var wire 32 +" I0 [31:0] $end
$var wire 32 ," I1 [31:0] $end
$var wire 1 $ Sel $end
$var wire 32 -" Out [31:0] $end
$upscope $end
$scope module RdRtSelRF $end
$var wire 5 ." I0 [4:0] $end
$var wire 5 /" I1 [4:0] $end
$var wire 1 0" Sel $end
$var wire 5 1" Out [4:0] $end
$upscope $end
$scope module Registers $end
$var wire 1 ! Clk $end
$var wire 1 " Rst $end
$var wire 32 2" data1 [31:0] $end
$var wire 32 3" data2 [31:0] $end
$var wire 5 4" read1 [4:0] $end
$var wire 5 5" read2 [4:0] $end
$var wire 1 6" regWen $end
$var wire 32 7" writeData [31:0] $end
$var wire 5 8" writeReg [4:0] $end
$upscope $end
$scope module Shiftby2 $end
$var wire 32 9" Out [31:0] $end
$var wire 32 :" In [31:0] $end
$upscope $end
$scope module Shiftby2Jump $end
$var wire 26 ;" In [25:0] $end
$var wire 28 <" Out [27:0] $end
$upscope $end
$scope module SignExtend $end
$var wire 16 =" In [15:0] $end
$var wire 32 >" Out [31:0] $end
$upscope $end
$scope module pipRegCntrl $end
$var wire 1 ! Clk $end
$var wire 1 F MEM_memRead $end
$var wire 1 E MEM_memWrite $end
$var wire 1 " Rst $end
$var wire 1 ?" branch $end
$var wire 1 @ dmemError $end
$var wire 1 @" dmemHaz $end
$var wire 1 = flush $end
$var wire 1 < flushIF $end
$var wire 1 ; hazard $end
$var wire 1 : imemError $end
$var wire 1 A" jump $end
$var wire 1 B" memHaz $end
$var wire 2 C" hazType [1:0] $end
$var reg 2 D" State [1:0] $end
$var reg 1 4 nop $end
$var reg 5 E" stall [4:0] $end
$upscope $end
$upscope $end
$upscope $end
$enddefinitions $end
#0
$dumpvars
bx E"
bx D"
b0x C"
0B"
zA"
0@"
z?"
bx >"
bx ="
bx00 <"
bx ;"
bx :"
bx00 9"
bx 8"
bx 7"
x6"
bx 5"
bx 4"
bx 3"
bx 2"
bx 1"
x0"
bx /"
bx ."
bx -"
bx ,"
bx +"
bx *"
b100 )"
bx ("
bx '"
b111111 &"
bx %"
bx $"
x#"
bx ""
bx !"
bx ~
bx }
bx00 |
bx {
zz
bx y
bx x
xw
bx v
bx u
bx t
bx00 s
bx r
bx q
xp
bx o
bx n
bx m
xl
xk
bx j
bx i
bx h
bx g
xf
xe
bx d
bx c
bx b
bx a
bx `
bx _
bx ^
bx ]
bx \
bx [
bx Z
bx Y
bx X
bx W
bx V
bx U
bx T
bx S
xR
bx Q
bx P
bx O
bx N
bx M
bx L
bx00 K
bx J
bx I
bx00 H
bx00 G
xF
xE
bx D
bx C
xB
xA
0@
bx ?
bx >
x=
x<
x;
0:
bx 9
x8
x7
x6
x5
x4
bx 3
bx 2
bx 1
x0
x/
bx .
bx -
bx ,
bx +
bx *
bx )
bx (
x'
0&
x%
x$
bx #
0"
1!
$end
#1
0$
b0 C"
0<
0=
0e
b10 T
b10 d
1f
08
0A
06
07
0/
05
0R
b10001 P
10
1B
b0 S
b0 ^
0;
b100 C
b100 -"
b0 I
b0 ~
b0 ,"
0%
b0 D
b0 t
b0 }
bz M
bz j
1'
b0 K
b0 s
b0 9"
b0 +
b0 $"
b0 7"
0p
bz i
0l
0k
b10 U
b10 ]
b10 b
b0 Q
b0 \
b0 x
b0 *
b0 q
b0 1"
b111111 2
b111111 c
b111111 '"
b0 L
b0 :"
b0 >"
b0 (
b0 8"
06"
b0 !"
b0 ""
0#"
0F
0E
b0 N
b0 )
b0 o
b0 g
b0 h
b0 O
b0 [
b0 _
b0 `
b0 a
b0 u
b0 v
0w
b0 ."
b0 /"
00"
b0 ?
b0 2"
b0 .
b0 m
b0 4"
b0 >
b0 3"
b0 -
b0 n
b0 5"
b0 1
b111111 3
b111111 %"
b0 ="
b0 G
b0 |
b0 H
b0 <"
b0 ;"
b0 r
b0 Y
b0 V
b0 W
b11111100000000000000000000000000 X
b100 9
b100 *"
b100 +"
b10001100111001000000000000001010 J
b10001100111001000000000000001010 {
b0 #
b0 ("
b0 Z
b0 y
1"
#2
b0 ,
b0 E"
04
b0 D"
0!
#3
b0 T
b0 d
0f
17
1/
1R
b11000010 P
00
0'
b101000 K
b101000 s
b101000 9"
bz +
bz $"
bz 7"
b1101 U
b1101 ]
b1101 b
b101100 D
b101100 t
b101100 }
b100011 2
b100011 c
b100011 '"
b1010 L
b1010 :"
b1010 >"
b11100100000000000000101000 I
b11100100000000000000101000 ~
b11100100000000000000101000 ,"
b1000 C
b1000 -"
bz !"
b111111 a
b10 _
10"
b100 r
b10 ?
b10 2"
b111 .
b111 m
b111 4"
b1101111010101111 >
b1101111010101111 3"
b100 -
b100 n
b100 5"
b100011 3
b100011 %"
b1010 ="
b11100100000000000000101000 G
b11100100000000000000101000 |
b11100100000000000000101000 H
b11100100000000000000101000 <"
b111001000000000000001010 ;"
b1000 9
b1000 *"
b1000 +"
b0zzzzzzzzzzzzzzzzzzzzzzzzzzzzzzzz Y
b111111000100010000000000000000000000000000000000000000000000000000000000000000000000000000000000000000000000000000000000 W
b10010001100111001000000000000001010 X
b100010000101000000100010 J
b100010000101000000100010 {
b100 #
b100 ("
b100 Z
b100 y
1!
#4
0!
#5
b1 C"
1;
b10 T
b10 d
1f
07
15
0R
b1010101 P
10
0B
b1100 S
b1100 ^
b10100000010001000 K
b10100000010001000 s
b10100000010001000 9"
b100 *
b100 q
b100 1"
b1100 C
b1100 -"
b10100000010010000 D
b10100000010010000 t
b10100000010010000 }
b0 2
b0 c
b0 '"
b101000000100010 L
b101000000100010 :"
b101000000100010 >"
b10001000010100000010001000 I
b10001000010100000010001000 ~
b10001000010100000010001000 ,"
1l
1k
b10 U
b10 ]
b10 b
b1010 Q
b1010 \
b1010 x
b1100 9
b1100 *"
b1100 +"
b1000 r
b1101111010101111 ?
b1101111010101111 2"
b100 .
b100 m
b100 4"
b111110 >
b111110 3"
b1000 -
b1000 n
b1000 5"
b1010 1
b0 3
b0 %"
b101000000100010 ="
b10001000010100000010001000 G
b10001000010100000010001000 |
b10001000010100000010001000 H
b10001000010100000010001000 <"
b100010000101000000100010 ;"
b100011 a
b1001 O
b0 _
1w
00"
b100 ."
b1010 `
b1010 v
b1101111010101111 u
b10 [
b10000001000100000000000000011 J
b10000001000100000000000000011 {
b1000 #
b1000 ("
b1000 Z
b1000 y
b100000000000100010000101000000100010 X
b100011110000100010000000000000000000000000000000000010100000000000000000110111101010111100000000000000000000000000000010 W
1!
#6
0/
b10001 P
05
b111111 2
b111111 c
b111111 '"
b11 ,
b11 E"
14
b1 D"
0!
#7
b1101111001110001 S
b1101111001110001 ^
b1101111011101101 M
b1101111011101101 j
b1101111011101101 i
1p
0l
0k
b1010 *
b1010 q
b1010 1"
b110 U
b110 ]
b110 b
b111110 Q
b111110 \
b111110 x
b100 )
b100 o
1F
b10 N
b1101111010101111 h
b1100 g
b111111 a
b0 O
b10 _
0w
10"
b1000 ."
b1010 /"
b100010 `
b101000000100010 v
b111110 u
b1101111010101111 [
b10010010000000000000000110111101010111100000000000000000000000000001100 V
b111111000100010100001010000000000000000001010000001000100000000000000000000000000011111000000000000000001101111010101111 W
1!
#8
0!
#9
b0 C"
0;
bz M
bz j
0p
bz i
b1101111011101101 +
b1101111011101101 $"
b1101111011101101 7"
b1010 )
b1010 o
0F
b0 N
b111110 h
b1101111001110001 g
16"
b100 (
b100 8"
b1100 ""
b1101111011101101 !"
b101000000000000000000000000000000011111000000000000000001101111001110001 V
b10001000000000000000000000000000000110000000000000000001101111011101101 Y
1!
#10
1/
b1010101 P
15
b0 2
b0 c
b0 '"
b0 ,
b0 E"
04
b0 D"
b1101111011101101 ?
b1101111011101101 2"
0!
#11
1<
1=
1$
1%
1e
b1 T
b1 d
0f
1A
0/
x5
b1x0x P
x0
b1101111010101111 S
b1101111010101111 ^
1'
b1100 K
b1100 s
b1100 9"
bz +
bz $"
bz 7"
1l
b11000 D
b11000 t
b11000 }
b100 2
b100 c
b100 '"
b11 L
b11 :"
b11 >"
b11000 I
b11000 ~
b11000 ,"
b11000 C
b11000 -"
06"
b1010 (
b1010 8"
b1101111001110001 ""
bz !"
b0 a
b1010 O
b1101111011101101 [
b1100 r
b1010 ?
b1010 2"
b1 .
b1 m
b1 4"
b1010 >
b1010 3"
b10 -
b10 n
b10 5"
b0 1
b100 3
b100 %"
b11 ="
b100010000000000000001100 G
b100010000000000000001100 |
b100010000000000000001100 H
b100010000000000000001100 <"
b1000100000000000000011 ;"
b10000 9
b10000 *"
b10000 +"
b101000000000000000001101111001110001zzzzzzzzzzzzzzzzzzzzzzzzzzzzzzzz Y
b10101010100001010000000000000000001010000001000100000000000000000000000000011111000000000000000001101111011101101 W
b110000010000001000100000000000000011 X
b1010001010110000000100100 J
b1010001010110000000100100 {
b1100 #
b1100 ("
b1100 Z
b1100 y
1!
#12
0!
#13
0<
0=
0e
b10 T
b10 d
1f
0A
05
b10001 P
10
1B
b0 S
b0 ^
0$
b11100 C
b11100 -"
0%
b0 I
b0 ~
b0 ,"
b0 K
b0 s
b0 9"
b0 D
b0 t
b0 }
b111111 2
b111111 c
b111111 '"
b0 L
b0 :"
b0 >"
0l
b0x0 *
b0x0 q
b0x0 1"
b1010 Q
b1010 \
b1010 x
1p
b11100 9
b11100 *"
b11100 +"
b0 r
b0 ?
b0 2"
b0 .
b0 m
b0 4"
b0 >
b0 3"
b0 -
b0 n
b0 5"
b111111 3
b111111 %"
b0 ="
b0 G
b0 |
b0 H
b0 <"
b0 ;"
b100 a
b0x0 O
b1 _
x0"
b10 ."
b0 /"
b11 `
b11 v
b1010 u
b1010 [
b11 N
b1101111010101111 g
b10001100110001000000000000001010 J
b10001100110001000000000000001010 {
b11000 #
b11000 ("
b11000 Z
b11000 y
b11111100000000000000000000000000 X
b10000001x0x0001000000000000000000000000000000000000110000000000000000000000000000101000000000000000000000000000001010 W
b101010100000000000000000000000000011111000000000000000001101111010101111 V
1!
#14
0!
#15
b0 T
b0 d
0f
17
1/
1R
b11000010 P
00
1B
b0 S
b0 ^
b1101111010101111 +
b1101111010101111 $"
b1101111010101111 7"
0'
b101000 K
b101000 s
b101000 9"
0p
b0 *
b0 q
b0 1"
b1101 U
b1101 ]
b1101 b
b0 Q
b0 \
b0 x
b1000100 D
b1000100 t
b1000100 }
b100011 2
b100011 c
b100011 '"
b1010 L
b1010 :"
b1010 >"
b11000100000000000000101000 I
b11000100000000000000101000 ~
b11000100000000000000101000 ,"
b100000 C
b100000 -"
16"
1#"
b1101111010101111 ""
b0x0 )
b0x0 o
b0x N
b1010 h
b0 g
b111111 a
b0 O
b10 _
10"
b0 ."
b0 `
b0 v
b0 u
b0 [
b11100 r
b110 ?
b110 2"
b110 .
b110 m
b110 4"
b1101111011101101 >
b1101111011101101 3"
b100 -
b100 n
b100 5"
b100011 3
b100011 %"
b1010 ="
b11000100000000000000101000 G
b11000100000000000000101000 |
b11000100000000000000101000 H
b11000100000000000000101000 <"
b110001000000000000001010 ;"
b100000 9
b100000 *"
b100000 +"
b110101000000000000000001101111010101111zzzzzzzzzzzzzzzzzzzzzzzzzzzzzzzz Y
b0x000x00000000000000000000000000000101000000000000000000000000000000000 V
b111111000100010000000000000000000000000000000000000000000000000000000000000000000000000000000000000000000000000000000000 W
b1110010001100110001000000000000001010 X
b1000000000000000000000000000 J
b1000000000000000000000000000 {
b11100 #
b11100 ("
b11100 Z
b11100 y
1!
#16
0!
#17
1<
1=
1$
xe
bx T
bx d
xf
18
07
0/
x5
xR
bx00xxx0x P
x0
0B
b10000 S
b10000 ^
1'
b0 K
b0 s
b0 9"
b100 *
b100 q
b100 1"
b0 C
b0 -"
b100000 D
b100000 t
b100000 }
b10 2
b10 c
b10 '"
b0 L
b0 :"
b0 >"
b0 I
b0 ~
b0 ,"
1l
1k
b10 U
b10 ]
b10 b
b1010 Q
b1010 \
b1010 x
bx +
bx $"
bx 7"
b100100 9
b100100 *"
b100100 +"
b100000 r
b0 ?
b0 2"
b0 .
b0 m
b0 4"
b0 >
b0 3"
b0 -
b0 n
b0 5"
b10 3
b10 %"
b0 ="
b0 G
b0 |
b0 H
b0 <"
b0 ;"
b100011 a
b1001 O
b0 _
1w
00"
b100 ."
b1010 `
b1010 v
b1101111011101101 u
b110 [
b0 )
b0 o
b0 N
b0 h
06"
x#"
b0x0 (
b0x0 8"
b0 ""
b10101100011001000000000000001010 J
b10101100011001000000000000001010 {
b100000 #
b100000 ("
b100000 Z
b100000 y
b10000000001000000000000000000000000000 X
b100011110000100010000000000000000000000000000000000010100000000000000000110111101110110100000000000000000000000000000110 W
b0 V
b0x000x000000000000000000000000000000000zzzzzzzzzzzzzzzzzzzzzzzzzzzzzzzz Y
1!
#18
0!
#19
0<
0=
b100 C
b100 -"
0$
1B
0e
b10 T
b10 d
1f
08
05
0R
b10001 P
10
b0 S
b0 ^
bz +
bz $"
bz 7"
b1111111011101101 M
b1111111011101101 j
b1111111011101101 i
1p
0l
0k
b0 *
b0 q
b0 1"
b0 Q
b0 \
b0 x
b0 D
b0 t
b0 }
b111111 2
b111111 c
b111111 '"
0#"
b0 (
b0 8"
b100 )
b100 o
1F
b10 N
b1101111011101101 h
b10000 g
b10 a
b0x0 O
bx _
xw
x0"
b0 ."
b0 `
b0 v
b0 u
b0 [
b0 r
b111111 3
b111111 %"
b100 9
b100 *"
b100 +"
b0zzzzzzzzzzzzzzzzzzzzzzzzzzzzzzzz Y
b10010010000000000000000110111101110110100000000000000000000000000010000 V
b10x00xxx0x0000000000000000000000000000000000000000000000000000000000000000000000000000000000000000000000000000000000 W
b11111100000000000000000000000000 X
b10001100111001000000000000001010 J
b10001100111001000000000000001010 {
b0 #
b0 ("
b0 Z
b0 y
1!
#20
0!
#21
b0 T
b0 d
0f
17
1/
1R
b11000010 P
00
0'
b101000 K
b101000 s
b101000 9"
bz M
bz j
b1000 C
b1000 -"
b101100 D
b101100 t
b101100 }
b100011 2
b100011 c
b100011 '"
b1010 L
b1010 :"
b1010 >"
b11100100000000000000101000 I
b11100100000000000000101000 ~
b11100100000000000000101000 ,"
b1101 U
b1101 ]
b1101 b
0p
bz i
b1111111011101101 +
b1111111011101101 $"
b1111111011101101 7"
b1000 9
b1000 *"
b1000 +"
b100 r
b10 ?
b10 2"
b111 .
b111 m
b111 4"
b1101111011101101 >
b1101111011101101 3"
b100 -
b100 n
b100 5"
b100011 3
b100011 %"
b1010 ="
b11100100000000000000101000 G
b11100100000000000000101000 |
b11100100000000000000101000 H
b11100100000000000000101000 <"
b111001000000000000001010 ;"
b111111 a
b0 O
b10 _
0w
10"
b0 )
b0 o
0F
b0x N
b0 h
b0 g
16"
b100 (
b100 8"
b10000 ""
b1111111011101101 !"
b100010000101000000100010 J
b100010000101000000100010 {
b100 #
b100 ("
b100 Z
b100 y
b10010001100111001000000000000001010 X
b111111000100010000000000000000000000000000000000000000000000000000000000000000000000000000000000000000000000000000000000 W
b0x00000000000000000000000000000000000000000000000000000000000000000 V
b10001000000000000000000000000000001000000000000000000001111111011101101 Y
1!
#22
b1111111011101101 >
b1111111011101101 3"
0!
#23
b1 C"
1;
b10 T
b10 d
1f
07
15
0R
b1010101 P
10
0B
b1100 S
b1100 ^
b100 *
b100 q
b100 1"
b10100000010001000 K
b10100000010001000 s
b10100000010001000 9"
bx +
bx $"
bx 7"
1l
1k
b10 U
b10 ]
b10 b
b1010 Q
b1010 \
b1010 x
b10100000010010000 D
b10100000010010000 t
b10100000010010000 }
b0 2
b0 c
b0 '"
b101000000100010 L
b101000000100010 :"
b101000000100010 >"
b10001000010100000010001000 I
b10001000010100000010001000 ~
b10001000010100000010001000 ,"
b1100 C
b1100 -"
06"
x#"
b0 (
b0 8"
b0 ""
bz !"
b0 N
b100011 a
b1001 O
b0 _
1w
00"
b100 ."
b1010 `
b1010 v
b1111111011101101 u
b10 [
b1000 r
b1111111011101101 ?
b1111111011101101 2"
b100 .
b100 m
b100 4"
b111110 >
b111110 3"
b1000 -
b1000 n
b1000 5"
b1010 1
b0 3
b0 %"
b101000000100010 ="
b10001000010100000010001000 G
b10001000010100000010001000 |
b10001000010100000010001000 H
b10001000010100000010001000 <"
b100010000101000000100010 ;"
b1100 9
b1100 *"
b1100 +"
b0x0000000000000000000000000000000000000zzzzzzzzzzzzzzzzzzzzzzzzzzzzzzzz Y
b0 V
b100011110000100010000000000000000000000000000000000010100000000000000000111111101110110100000000000000000000000000000010 W
b100000000000100010000101000000100010 X
b10000001000100000000000000011 J
b10000001000100000000000000011 {
b1000 #
b1000 ("
b1000 Z
b1000 y
1!
#24
0/
b10001 P
05
b111111 2
b111111 c
b111111 '"
b11 ,
b11 E"
14
b1 D"
0!
#25
b1111111010101111 S
b1111111010101111 ^
b1101111011101101 M
b1101111011101101 j
bz +
bz $"
bz 7"
0l
0k
b1010 *
b1010 q
b1010 1"
b110 U
b110 ]
b110 b
b111110 Q
b111110 \
b111110 x
b1101111011101101 i
1p
b111111 a
b0 O
b10 _
0w
10"
b1000 ."
b1010 /"
b100010 `
b101000000100010 v
b111110 u
b1111111011101101 [
b100 )
b100 o
1F
b10 N
b1111111011101101 h
b1100 g
0#"
b111111000100010100001010000000000000000001010000001000100000000000000000000000000011111000000000000000001111111011101101 W
b10010010000000000000000111111101110110100000000000000000000000000001100 V
b0zzzzzzzzzzzzzzzzzzzzzzzzzzzzzzzz Y
1!
#26
0!
#27
b0 C"
0;
bz M
bz j
b1101111011101101 +
b1101111011101101 $"
b1101111011101101 7"
0p
bz i
16"
b100 (
b100 8"
b1100 ""
b1101111011101101 !"
b1010 )
b1010 o
0F
b0 N
b111110 h
b1111111010101111 g
b10001000000000000000000000000000000110000000000000000001101111011101101 Y
b101000000000000000000000000000000011111000000000000000001111111010101111 V
1!
#28
1/
b1010101 P
15
b0 2
b0 c
b0 '"
b0 ,
b0 E"
04
b1101111011101101 ?
b1101111011101101 2"
b0 D"
0!
#29
1<
1=
1$
1%
1e
b1 T
b1 d
0f
1A
0/
x5
b1x0x P
x0
b1101111010101111 S
b1101111010101111 ^
1'
b1100 K
b1100 s
b1100 9"
b11000 C
b11000 -"
b11000 D
b11000 t
b11000 }
b100 2
b100 c
b100 '"
b11 L
b11 :"
b11 >"
b11000 I
b11000 ~
b11000 ,"
1l
bz +
bz $"
bz 7"
b10000 9
b10000 *"
b10000 +"
b1100 r
b1010 ?
b1010 2"
b1 .
b1 m
b1 4"
b1010 >
b1010 3"
b10 -
b10 n
b10 5"
b0 1
b100 3
b100 %"
b11 ="
b100010000000000000001100 G
b100010000000000000001100 |
b100010000000000000001100 H
b100010000000000000001100 <"
b1000100000000000000011 ;"
b0 a
b1010 O
b1101111011101101 [
06"
b1010 (
b1010 8"
b1111111010101111 ""
bz !"
b1010001010110000000100100 J
b1010001010110000000100100 {
b1100 #
b1100 ("
b1100 Z
b1100 y
b110000010000001000100000000000000011 X
b10101010100001010000000000000000001010000001000100000000000000000000000000011111000000000000000001101111011101101 W
b101000000000000000001111111010101111zzzzzzzzzzzzzzzzzzzzzzzzzzzzzzzz Y
1!
#30
0!
#31
0<
0=
1B
0e
b10 T
b10 d
1f
0A
05
b10001 P
10
b0 S
b0 ^
0$
b11100 C
b11100 -"
0%
b0 I
b0 ~
b0 ,"
b0 K
b0 s
b0 9"
1p
0l
b0x0 *
b0x0 q
b0x0 1"
b1010 Q
b1010 \
b1010 x
b0 D
b0 t
b0 }
b111111 2
b111111 c
b111111 '"
b0 L
b0 :"
b0 >"
b11 N
b1101111010101111 g
b100 a
b0x0 O
b1 _
x0"
b10 ."
b0 /"
b11 `
b11 v
b1010 u
b1010 [
b0 r
b0 ?
b0 2"
b0 .
b0 m
b0 4"
b0 >
b0 3"
b0 -
b0 n
b0 5"
b111111 3
b111111 %"
b0 ="
b0 G
b0 |
b0 H
b0 <"
b0 ;"
b11100 9
b11100 *"
b11100 +"
b101010100000000000000000000000000011111000000000000000001101111010101111 V
b10000001x0x0001000000000000000000000000000000000000110000000000000000000000000000101000000000000000000000000000001010 W
b11111100000000000000000000000000 X
b10001100110001000000000000001010 J
b10001100110001000000000000001010 {
b11000 #
b11000 ("
b11000 Z
b11000 y
1!
#32
0!
#33
b0 T
b0 d
0f
17
1/
1R
b11000010 P
00
1B
b0 S
b0 ^
0'
b101000 K
b101000 s
b101000 9"
b1101111010101111 +
b1101111010101111 $"
b1101111010101111 7"
b100000 C
b100000 -"
b1000100 D
b1000100 t
b1000100 }
b100011 2
b100011 c
b100011 '"
b1010 L
b1010 :"
b1010 >"
b11000100000000000000101000 I
b11000100000000000000101000 ~
b11000100000000000000101000 ,"
b0 *
b0 q
b0 1"
b1101 U
b1101 ]
b1101 b
b0 Q
b0 \
b0 x
0p
b100000 9
b100000 *"
b100000 +"
b11100 r
b110 ?
b110 2"
b110 .
b110 m
b110 4"
b1101111011101101 >
b1101111011101101 3"
b100 -
b100 n
b100 5"
b100011 3
b100011 %"
b1010 ="
b11000100000000000000101000 G
b11000100000000000000101000 |
b11000100000000000000101000 H
b11000100000000000000101000 <"
b110001000000000000001010 ;"
b111111 a
b0 O
b10 _
10"
b0 ."
b0 `
b0 v
b0 u
b0 [
b0x0 )
b0x0 o
b0x N
b1010 h
b0 g
16"
1#"
b1101111010101111 ""
b1000000000000000000000000000 J
b1000000000000000000000000000 {
b11100 #
b11100 ("
b11100 Z
b11100 y
b1110010001100110001000000000000001010 X
b111111000100010000000000000000000000000000000000000000000000000000000000000000000000000000000000000000000000000000000000 W
b0x000x00000000000000000000000000000101000000000000000000000000000000000 V
b110101000000000000000001101111010101111zzzzzzzzzzzzzzzzzzzzzzzzzzzzzzzz Y
1!
#34
0!
#35
1<
1=
1$
xe
bx T
bx d
xf
18
07
0/
x5
xR
bx00xxx0x P
x0
0B
b10000 S
b10000 ^
b100 *
b100 q
b100 1"
1'
b0 K
b0 s
b0 9"
bx +
bx $"
bx 7"
1l
1k
b10 U
b10 ]
b10 b
b1010 Q
b1010 \
b1010 x
b100000 D
b100000 t
b100000 }
b10 2
b10 c
b10 '"
b0 L
b0 :"
b0 >"
b0 I
b0 ~
b0 ,"
b0 C
b0 -"
06"
x#"
b0x0 (
b0x0 8"
b0 ""
b0 )
b0 o
b0 N
b0 h
b100011 a
b1001 O
b0 _
1w
00"
b100 ."
b1010 `
b1010 v
b1101111011101101 u
b110 [
b100000 r
b0 ?
b0 2"
b0 .
b0 m
b0 4"
b0 >
b0 3"
b0 -
b0 n
b0 5"
b10 3
b10 %"
b0 ="
b0 G
b0 |
b0 H
b0 <"
b0 ;"
b100100 9
b100100 *"
b100100 +"
b0x000x000000000000000000000000000000000zzzzzzzzzzzzzzzzzzzzzzzzzzzzzzzz Y
b0 V
b100011110000100010000000000000000000000000000000000010100000000000000000110111101110110100000000000000000000000000000110 W
b10000000001000000000000000000000000000 X
b10101100011001000000000000001010 J
b10101100011001000000000000001010 {
b100000 #
b100000 ("
b100000 Z
b100000 y
1!
#36
0!
#37
0<
0=
b100 C
b100 -"
0$
0e
b10 T
b10 d
1f
08
05
0R
b10001 P
10
1B
b0 S
b0 ^
b1111111011101101 M
b1111111011101101 j
bz +
bz $"
bz 7"
b0 D
b0 t
b0 }
b111111 2
b111111 c
b111111 '"
0l
0k
b0 *
b0 q
b0 1"
b0 Q
b0 \
b0 x
b1111111011101101 i
1p
b100 9
b100 *"
b100 +"
b0 r
b111111 3
b111111 %"
b10 a
b0x0 O
bx _
xw
x0"
b0 ."
b0 `
b0 v
b0 u
b0 [
b100 )
b100 o
1F
b10 N
b1101111011101101 h
b10000 g
0#"
b0 (
b0 8"
b10001100111001000000000000001010 J
b10001100111001000000000000001010 {
b0 #
b0 ("
b0 Z
b0 y
b11111100000000000000000000000000 X
b10x00xxx0x0000000000000000000000000000000000000000000000000000000000000000000000000000000000000000000000000000000000 W
b10010010000000000000000110111101110110100000000000000000000000000010000 V
b0zzzzzzzzzzzzzzzzzzzzzzzzzzzzzzzz Y
1!
#38
0!
